^C:\USERS\THEBESTONE\SOURCE\REPOS\HELLOWORLD\HELLOWORLD.CPP
C:\USERS\THEBESTONE\SOURCE\REPOS\HELLOWORLD\DEBUG\VC142.PDB
C:\USERS\THEBESTONE\SOURCE\REPOS\HELLOWORLD\DEBUG\VC142.IDB
C:\USERS\THEBESTONE\SOURCE\REPOS\HELLOWORLD\DEBUG\HELLOWORLD.OBJ
