^C:\USERS\THEBESTONE\SOURCE\REPOS\HELLOWORLD\DEBUG\HELLOWORLD.OBJ
C:\USERS\THEBESTONE\SOURCE\REPOS\HELLOWORLD\DEBUG\HELLOWORLD.EXE
C:\USERS\THEBESTONE\SOURCE\REPOS\HELLOWORLD\DEBUG\HELLOWORLD.ILK
C:\USERS\THEBESTONE\SOURCE\REPOS\HELLOWORLD\DEBUG\HELLOWORLD.PDB
